# 1D ASCII output created by CarpetIOASCII
# created on fdea4908.spdns.org by rhaas on Sep 10 2018 at 22:24:13+0100
# parameter filename: "../par/gaussian-maxium.par"
#
# phi x (phi)
#
# iteration 0   time 0
# time level 0
# refinement level 0   multigrid level 0   map 0   component 0
# column format: 1:it	2:tl	3:rl 4:c 5:ml	6:ix 7:iy 8:iz	9:time	10:x 11:y 12:z	13:data
0	0	0 0 0	0 52 52	0	-0.52 0 0	1.80583143751321e-12
0	0	0 0 0	2 52 52	0	-0.5 0 0	1.3887943864964e-11
0	0	0 0 0	4 52 52	0	-0.48 0 0	9.85950557599152e-11
0	0	0 0 0	6 52 52	0	-0.46 0 0	6.46143177310613e-10
0	0	0 0 0	8 52 52	0	-0.44 0 0	3.90893843426488e-09
0	0	0 0 0	10 52 52	0	-0.42 0 0	2.18295779512548e-08
0	0	0 0 0	12 52 52	0	-0.4 0 0	1.12535174719259e-07
0	0	0 0 0	14 52 52	0	-0.38 0 0	5.35534780279311e-07
0	0	0 0 0	16 52 52	0	-0.36 0 0	2.35257520000978e-06
0	0	0 0 0	18 52 52	0	-0.34 0 0	9.54016287307925e-06
0	0	0 0 0	20 52 52	0	-0.32 0 0	3.57128496416353e-05
0	0	0 0 0	22 52 52	0	-0.3 0 0	0.000123409804086679
0	0	0 0 0	24 52 52	0	-0.28 0 0	0.000393669040655078
0	0	0 0 0	26 52 52	0	-0.26 0 0	0.00115922917390459
0	0	0 0 0	28 52 52	0	-0.24 0 0	0.00315111159844444
0	0	0 0 0	30 52 52	0	-0.22 0 0	0.00790705405159343
0	0	0 0 0	32 52 52	0	-0.2 0 0	0.0183156388887342
0	0	0 0 0	34 52 52	0	-0.18 0 0	0.0391638950989871
0	0	0 0 0	36 52 52	0	-0.16 0 0	0.0773047404432997
0	0	0 0 0	38 52 52	0	-0.14 0 0	0.140858420921045
0	0	0 0 0	40 52 52	0	-0.12 0 0	0.236927758682122
0	0	0 0 0	42 52 52	0	-0.1 0 0	0.367879441171443
0	0	0 0 0	44 52 52	0	-0.08 0 0	0.527292424043048
0	0	0 0 0	46 52 52	0	-0.06 0 0	0.697676326071031
0	0	0 0 0	48 52 52	0	-0.04 0 0	0.852143788966211
0	0	0 0 0	50 52 52	0	-0.02 0 0	0.960789439152323
0	0	0 0 0	52 52 52	0	0 0 0	1
0	0	0 0 0	54 52 52	0	0.02 0 0	0.960789439152323
0	0	0 0 0	56 52 52	0	0.04 0 0	0.852143788966211
0	0	0 0 0	58 52 52	0	0.06 0 0	0.697676326071031
0	0	0 0 0	60 52 52	0	0.08 0 0	0.527292424043049
0	0	0 0 0	62 52 52	0	0.1 0 0	0.367879441171443
0	0	0 0 0	64 52 52	0	0.12 0 0	0.236927758682122
0	0	0 0 0	66 52 52	0	0.14 0 0	0.140858420921045
0	0	0 0 0	68 52 52	0	0.16 0 0	0.0773047404432997
0	0	0 0 0	70 52 52	0	0.18 0 0	0.039163895098987
0	0	0 0 0	72 52 52	0	0.2 0 0	0.0183156388887342
0	0	0 0 0	74 52 52	0	0.22 0 0	0.00790705405159345
0	0	0 0 0	76 52 52	0	0.24 0 0	0.00315111159844444
0	0	0 0 0	78 52 52	0	0.26 0 0	0.00115922917390459
0	0	0 0 0	80 52 52	0	0.28 0 0	0.000393669040655078
0	0	0 0 0	82 52 52	0	0.3 0 0	0.000123409804086679
0	0	0 0 0	84 52 52	0	0.32 0 0	3.57128496416354e-05
0	0	0 0 0	86 52 52	0	0.34 0 0	9.54016287307926e-06
0	0	0 0 0	88 52 52	0	0.36 0 0	2.35257520000978e-06
0	0	0 0 0	90 52 52	0	0.38 0 0	5.35534780279311e-07
0	0	0 0 0	92 52 52	0	0.4 0 0	1.12535174719259e-07
0	0	0 0 0	94 52 52	0	0.42 0 0	2.18295779512548e-08
0	0	0 0 0	96 52 52	0	0.44 0 0	3.90893843426488e-09
0	0	0 0 0	98 52 52	0	0.46 0 0	6.46143177310613e-10
0	0	0 0 0	100 52 52	0	0.48 0 0	9.85950557599152e-11
0	0	0 0 0	102 52 52	0	0.5 0 0	1.3887943864964e-11
0	0	0 0 0	104 52 52	0	0.52 0 0	1.80583143751321e-12


# iteration 0   time 0
# time level 0
# refinement level 1   multigrid level 0   map 0   component 0
# column format: 1:it	2:tl	3:rl 4:c 5:ml	6:ix 7:iy 8:iz	9:time	10:x 11:y 12:z	13:data
0	0	1 0 0	38 52 52	0	-0.14 0 0	0.140858420921045
0	0	1 0 0	39 52 52	0	-0.13 0 0	0.184519523992989
0	0	1 0 0	40 52 52	0	-0.12 0 0	0.236927758682122
0	0	1 0 0	41 52 52	0	-0.11 0 0	0.298197279429887
0	0	1 0 0	42 52 52	0	-0.1 0 0	0.367879441171443
0	0	1 0 0	43 52 52	0	-0.09 0 0	0.444858066222941
0	0	1 0 0	44 52 52	0	-0.08 0 0	0.527292424043048
0	0	1 0 0	45 52 52	0	-0.07 0 0	0.612626394184416
0	0	1 0 0	46 52 52	0	-0.06 0 0	0.697676326071031
0	0	1 0 0	47 52 52	0	-0.05 0 0	0.778800783071405
0	0	1 0 0	48 52 52	0	-0.04 0 0	0.852143788966211
0	0	1 0 0	49 52 52	0	-0.03 0 0	0.913931185271228
0	0	1 0 0	50 52 52	0	-0.02 0 0	0.960789439152323
0	0	1 0 0	51 52 52	0	-0.01 0 0	0.990049833749168
0	0	1 0 0	52 52 52	0	0 0 0	1
0	0	1 0 0	53 52 52	0	0.01 0 0	0.990049833749168
0	0	1 0 0	54 52 52	0	0.02 0 0	0.960789439152323
0	0	1 0 0	55 52 52	0	0.03 0 0	0.913931185271228
0	0	1 0 0	56 52 52	0	0.04 0 0	0.852143788966211
0	0	1 0 0	57 52 52	0	0.05 0 0	0.778800783071405
0	0	1 0 0	58 52 52	0	0.06 0 0	0.697676326071031
0	0	1 0 0	59 52 52	0	0.07 0 0	0.612626394184416
0	0	1 0 0	60 52 52	0	0.08 0 0	0.527292424043049
0	0	1 0 0	61 52 52	0	0.09 0 0	0.444858066222941
0	0	1 0 0	62 52 52	0	0.1 0 0	0.367879441171443
0	0	1 0 0	63 52 52	0	0.11 0 0	0.298197279429887
0	0	1 0 0	64 52 52	0	0.12 0 0	0.236927758682122
0	0	1 0 0	65 52 52	0	0.13 0 0	0.184519523992989
0	0	1 0 0	66 52 52	0	0.14 0 0	0.140858420921045


# iteration 2   time 0.01
# time level 0
# refinement level 0   multigrid level 0   map 0   component 0
# column format: 1:it	2:tl	3:rl 4:c 5:ml	6:ix 7:iy 8:iz	9:time	10:x 11:y 12:z	13:data
2	0	0 0 0	0 52 52	0.01	-0.52 0 0	3.14996396638728e-11
2	0	0 0 0	2 52 52	0.01	-0.5 0 0	3.14996396638728e-11
2	0	0 0 0	4 52 52	0.01	-0.48 0 0	2.10439340740697e-10
2	0	0 0 0	6 52 52	0.01	-0.46 0 0	1.29961932479125e-09
2	0	0 0 0	8 52 52	0.01	-0.44 0 0	7.42012783094723e-09
2	0	0 0 0	10 52 52	0.01	-0.42 0 0	3.91698672694716e-08
2	0	0 0 0	12 52 52	0.01	-0.4 0 0	1.91196109601437e-07
2	0	0 0 0	14 52 52	0.01	-0.38 0 0	8.63046364733725e-07
2	0	0 0 0	16 52 52	0.01	-0.36 0 0	3.6029662203158e-06
2	0	0 0 0	18 52 52	0.01	-0.34 0 0	1.39123625101192e-05
2	0	0 0 0	20 52 52	0.01	-0.32 0 0	4.96935956968399e-05
2	0	0 0 0	22 52 52	0.01	-0.3 0 0	0.000164211406985177
2	0	0 0 0	24 52 52	0.01	-0.28 0 0	0.000502058280952904
2	0	0 0 0	26 52 52	0.01	-0.26 0 0	0.00142035572066739
2	0	0 0 0	28 52 52	0.01	-0.24 0 0	0.0037185697525281
2	0	0 0 0	30 52 52	0.01	-0.22 0 0	0.00901017462357551
2	0	0 0 0	32 52 52	0.01	-0.2 0 0	0.0202073902589015
2	0	0 0 0	34 52 52	0.01	-0.18 0 0	0.0419514040906912
2	0	0 0 0	36 52 52	0.01	-0.16 0 0	0.080626786997692
2	0	0 0 0	38 52 52	0.01	-0.14 0 0	0.143464197557446
2	0	0 0 0	40 52 52	0.01	-0.12 0 0	0.236552080625206
2	0	0 0 0	42 52 52	0.01	-0.1 0 0	0.362361301686552
2	0	0 0 0	44 52 52	0.01	-0.08 0 0	0.51377743686155
2	0	0 0 0	46 52 52	0.01	-0.06 0 0	0.674049816874114
2	0	0 0 0	48 52 52	0.01	-0.04 0 0	0.818290590875919
2	0	0 0 0	50 52 52	0.01	-0.02 0 0	0.919247626612246
2	0	0 0 0	52 52 52	0.01	0 0 0	0.955594049642254
2	0	0 0 0	54 52 52	0.01	0.02 0 0	0.919247626612246
2	0	0 0 0	56 52 52	0.01	0.04 0 0	0.818290590875919
2	0	0 0 0	58 52 52	0.01	0.06 0 0	0.674049816874114
2	0	0 0 0	60 52 52	0.01	0.08 0 0	0.513777436861551
2	0	0 0 0	62 52 52	0.01	0.1 0 0	0.362361301686552
2	0	0 0 0	64 52 52	0.01	0.12 0 0	0.236552080625206
2	0	0 0 0	66 52 52	0.01	0.14 0 0	0.143464197557446
2	0	0 0 0	68 52 52	0.01	0.16 0 0	0.080626786997692
2	0	0 0 0	70 52 52	0.01	0.18 0 0	0.0419514040906911
2	0	0 0 0	72 52 52	0.01	0.2 0 0	0.0202073902589015
2	0	0 0 0	74 52 52	0.01	0.22 0 0	0.00901017462357552
2	0	0 0 0	76 52 52	0.01	0.24 0 0	0.00371856975252811
2	0	0 0 0	78 52 52	0.01	0.26 0 0	0.00142035572066739
2	0	0 0 0	80 52 52	0.01	0.28 0 0	0.000502058280952904
2	0	0 0 0	82 52 52	0.01	0.3 0 0	0.000164211406985177
2	0	0 0 0	84 52 52	0.01	0.32 0 0	4.969359569684e-05
2	0	0 0 0	86 52 52	0.01	0.34 0 0	1.39123625101193e-05
2	0	0 0 0	88 52 52	0.01	0.36 0 0	3.6029662203158e-06
2	0	0 0 0	90 52 52	0.01	0.38 0 0	8.63046364733725e-07
2	0	0 0 0	92 52 52	0.01	0.4 0 0	1.91196109601437e-07
2	0	0 0 0	94 52 52	0.01	0.42 0 0	3.91698672694716e-08
2	0	0 0 0	96 52 52	0.01	0.44 0 0	7.42012783094723e-09
2	0	0 0 0	98 52 52	0.01	0.46 0 0	1.29961932479126e-09
2	0	0 0 0	100 52 52	0.01	0.48 0 0	2.10439340740698e-10
2	0	0 0 0	102 52 52	0.01	0.5 0 0	3.14996396638728e-11
2	0	0 0 0	104 52 52	0.01	0.52 0 0	3.14996396638728e-11


# iteration 2   time 0.01
# time level 0
# refinement level 1   multigrid level 0   map 0   component 0
# column format: 1:it	2:tl	3:rl 4:c 5:ml	6:ix 7:iy 8:iz	9:time	10:x 11:y 12:z	13:data
2	0	1 0 0	38 52 52	0.01	-0.14 0 0	0.143464197557446
2	0	1 0 0	39 52 52	0.01	-0.13 0 0	0.186075340941114
2	0	1 0 0	40 52 52	0.01	-0.12 0 0	0.236552080625206
2	0	1 0 0	41 52 52	0.01	-0.11 0 0	0.295580601775482
2	0	1 0 0	42 52 52	0.01	-0.1 0 0	0.362361301686552
2	0	1 0 0	43 52 52	0.01	-0.09 0 0	0.43568642597004
2	0	1 0 0	44 52 52	0.01	-0.08 0 0	0.51377743686155
2	0	1 0 0	45 52 52	0.01	-0.07 0 0	0.59421966869444
2	0	1 0 0	46 52 52	0.01	-0.06 0 0	0.674049816874114
2	0	1 0 0	47 52 52	0.01	-0.05 0 0	0.749914376208436
2	0	1 0 0	48 52 52	0.01	-0.04 0 0	0.818290590875919
2	0	1 0 0	49 52 52	0.01	-0.03 0 0	0.875751422365915
2	0	1 0 0	50 52 52	0.01	-0.02 0 0	0.919247626612246
2	0	1 0 0	51 52 52	0.01	-0.01 0 0	0.946374961182626
2	0	1 0 0	52 52 52	0.01	0 0 0	0.955594049642254
2	0	1 0 0	53 52 52	0.01	0.01 0 0	0.946374961182626
2	0	1 0 0	54 52 52	0.01	0.02 0 0	0.919247626612246
2	0	1 0 0	55 52 52	0.01	0.03 0 0	0.875751422365915
2	0	1 0 0	56 52 52	0.01	0.04 0 0	0.818290590875919
2	0	1 0 0	57 52 52	0.01	0.05 0 0	0.749914376208435
2	0	1 0 0	58 52 52	0.01	0.06 0 0	0.674049816874114
2	0	1 0 0	59 52 52	0.01	0.07 0 0	0.59421966869444
2	0	1 0 0	60 52 52	0.01	0.08 0 0	0.513777436861551
2	0	1 0 0	61 52 52	0.01	0.09 0 0	0.43568642597004
2	0	1 0 0	62 52 52	0.01	0.1 0 0	0.362361301686552
2	0	1 0 0	63 52 52	0.01	0.11 0 0	0.295580601775482
2	0	1 0 0	64 52 52	0.01	0.12 0 0	0.236552080625206
2	0	1 0 0	65 52 52	0.01	0.13 0 0	0.186075340941114
2	0	1 0 0	66 52 52	0.01	0.14 0 0	0.143464197557446


