# Scalar ASCII output created by CarpetIOScalar
# created on fdea4908.spdns.org by rhaas on Sep 10 2018 at 22:24:20+0100
# parameter filename: "../par/gaussian-weights.par"
#
# WAVETOY::phi (phi)
# 1:iteration 2:time 3:data
0 0 1
