# Scalar ASCII output created by CarpetIOScalar
# created on fdea4908.spdns.org by rhaas on Sep 10 2018 at 22:24:18+0100
# parameter filename: "../par/gaussian-simple.par"
#
# WAVETOY::phi (phi)
# 1:iteration 2:time 3:data
0 0 1
1 0.005 0.985074750623752
2 0.01 0.955594049642254
