# Scalar ASCII output created by CarpetIOScalar
# created on fdea4908.spdns.org by rhaas on Sep 10 2018 at 22:24:18+0100
# parameter filename: "../par/gaussian-simple.par"
#
# WAVETOY::phi (phi)
# 1:iteration 2:time 3:data
0 0 4367.75203134571
1 0.005 4349.71845463748
2 0.01 4312.32124300675
